[{"text":"(Fullmaktsgivarens företagsnamn/namn)", "required": true, "type": "text", "positions":[{"x":3.70, "y":19.56, "page":1}]},
{"text":"(org-/personnummer)", "required": true, "type": "text", "positions":[{"x":13.20, "y":19.56, "page":1}]},

{"text":"(E-postadress kontaktperson fullmaktsgivare)", "required": true, "type": "text", "positions":[{"x":3.70, "y":20.43, "page":1}]},

{"text":"(Ort och Datum)", "required": false, "type": "text", "positions":[{"x":3.70, "y":22.97, "page":1}]},
{"text":"(Namnförtydligande)", "required": true, "type": "text", "positions":[{"x":10.65, "y":22.97, "page":1}]}]
